<svg width="122" height="119" viewBox="0 0 122 119" fill="none" xmlns="http://www.w3.org/2000/svg">
<path d="M119.311 52.4263C113.29 35.4563 94.5938 27.0893 77.2103 32.0489L70.4054 33.9856L68.6802 27.124C64.3052 9.60216 47.6896 -2.41797 29.9824 0.852268C9.67994 4.61778 -3.07053 25.0523 1.82774 44.6677L18.7231 112.152C19.8154 116.51 24.2104 119.048 28.5306 117.815L95.4216 98.7041C114.88 93.151 126.201 71.8915 119.311 52.4263V52.4263Z" fill="#D9D9D9"/>
</svg>
